{
    "sportId": 12,
    "last": 199096121,
    "league": [
        {
            "id": 199353,
            "name": "League of Legends - China LPL",
            "events": [
                {
                    "id": 959723927,
                    "starts": "2019-03-05T09:00:00Z",
                    "home": "Oh My God",
                    "away": "SinoDragon Gaming",
                    "rotNum": "30115",
                    "liveStatus": 1,
                    "status": "H",
                    "parlayRestriction": 1,
                    "parentId": 956894896,
                    "altTeaser": false,
                    "resultingUnit": "Regular"
                }
            ]
        }
    ]
}
