{
    "sportId": 12,
    "last": 672254459,
    "leagues": [
        {
            "id": 199353,
            "events": [
                {
                    "id": 959723927,
                    "periods": [
                        {
                            "lineId": 672254459,
                            "number": 0,
                            "cutoff": "2019-03-05T12:00:00Z",
                            "status": 2
                        }
                    ]
                }
            ]
        }
    ]
}
