{
    "sportId": 12,
    "last": 672256653,
    "leagues": [
        {
            "id": 199353,
            "events": [
                {
                    "id": 959407101,
                    "periods": [
                        {
                            "lineId": 672256650,
                            "number": 1,
                            "cutoff": "2019-03-05T19:58:26.65Z",
                            "maxSpread": 500,
                            "maxMoneyline": 500,
                            "maxTotal": 250,
                            "maxTeamTotal": 250,
                            "status": 1,
                            "spreads": [
                                {
                                    "hdp": 6.5,
                                    "home": 1.847,
                                    "away": 1.98
                                },
                                {
                                    "altLineId": 8445797905,
                                    "hdp": 9.5,
                                    "home": 1.409,
                                    "away": 2.95
                                },
                                {
                                    "altLineId": 8445797907,
                                    "hdp": 8.5,
                                    "home": 1.518,
                                    "away": 2.57
                                },
                                {
                                    "altLineId": 8445797909,
                                    "hdp": 7.5,
                                    "home": 1.653,
                                    "away": 2.25
                                },
                                {
                                    "altLineId": 8445797911,
                                    "hdp": 5.5,
                                    "home": 2.09,
                                    "away": 1.751
                                },
                                {
                                    "altLineId": 8445797913,
                                    "hdp": 4.5,
                                    "home": 2.36,
                                    "away": 1.602
                                },
                                {
                                    "altLineId": 8445797915,
                                    "hdp": 3.5,
                                    "home": 2.67,
                                    "away": 1.485
                                }
                            ],
                            "moneyline": {
                                "home": 2.98,
                                "away": 1.361
                            },
                            "totals": [
                                {
                                    "points": 23.5,
                                    "over": 1.917,
                                    "under": 1.819
                                },
                                {
                                    "altLineId": 8445797906,
                                    "points": 20.5,
                                    "over": 1.515,
                                    "under": 2.44
                                },
                                {
                                    "altLineId": 8445797908,
                                    "points": 21.5,
                                    "over": 1.653,
                                    "under": 2.15
                                },
                                {
                                    "altLineId": 8445797910,
                                    "points": 22.5,
                                    "over": 1.769,
                                    "under": 1.98
                                },
                                {
                                    "altLineId": 8445797912,
                                    "points": 24.5,
                                    "over": 2.08,
                                    "under": 1.699
                                },
                                {
                                    "altLineId": 8445797914,
                                    "points": 25.5,
                                    "over": 2.25,
                                    "under": 1.598
                                },
                                {
                                    "altLineId": 8445797916,
                                    "points": 26.5,
                                    "over": 2.47,
                                    "under": 1.502
                                }
                            ],
                            "teamTotal": {
                                "home": {
                                    "points": 9.5,
                                    "over": 1.847,
                                    "under": 1.892
                                },
                                "away": {
                                    "points": 14.5,
                                    "over": 1.97,
                                    "under": 1.775
                                }
                            }
                        }
                    ]
                },
                {
                    "id": 959723927,
                    "periods": [
                        {
                            "lineId": 672256653,
                            "number": 1,
                            "cutoff": "2019-03-05T12:00:00Z",
                            "maxMoneyline": 250,
                            "status": 1,
                            "moneyline": {
                                "home": 2.64,
                                "away": 1.448
                            }
                        }
                    ]
                }
            ]
        }
    ]
}
