{
    "sportId": 12,
    "last": 672258204,
    "leagues": [
        {
            "id": 204399,
            "events": [
                {
                    "id": 959545139,
                    "periods": [
                        {
                            "lineId": 672258167,
                            "number": 1,
                            "cutoff": "2019-03-05T09:23:05.503Z",
                            "maxSpread": 250,
                            "maxMoneyline": 250,
                            "maxTotal": 250,
                            "maxTeamTotal": 250,
                            "status": 1,
                            "spreads": [
                                {
                                    "hdp": -12.5,
                                    "home": 1.925,
                                    "away": 1.819
                                },
                                {
                                    "altLineId": 8445818721,
                                    "hdp": -15.5,
                                    "home": 2.42,
                                    "away": 1.523
                                },
                                {
                                    "altLineId": 8445818723,
                                    "hdp": -14.5,
                                    "home": 2.23,
                                    "away": 1.606
                                },
                                {
                                    "altLineId": 8445818725,
                                    "hdp": -13.5,
                                    "home": 2.07,
                                    "away": 1.704
                                },
                                {
                                    "altLineId": 8445818727,
                                    "hdp": -11.5,
                                    "home": 1.787,
                                    "away": 1.961
                                },
                                {
                                    "altLineId": 8445818729,
                                    "hdp": -10.5,
                                    "home": 1.671,
                                    "away": 2.12
                                },
                                {
                                    "altLineId": 8445818731,
                                    "hdp": -9.5,
                                    "home": 1.564,
                                    "away": 2.32
                                }
                            ],
                            "moneyline": {
                                "home": 1.178,
                                "away": 4.12
                            },
                            "totals": [
                                {
                                    "points": 44.5,
                                    "over": 1.813,
                                    "under": 1.854
                                },
                                {
                                    "altLineId": 8445818722,
                                    "points": 41.5,
                                    "over": 1.558,
                                    "under": 2.22
                                },
                                {
                                    "altLineId": 8445818724,
                                    "points": 42.5,
                                    "over": 1.628,
                                    "under": 2.1
                                },
                                {
                                    "altLineId": 8445818726,
                                    "points": 43.5,
                                    "over": 1.704,
                                    "under": 1.98
                                },
                                {
                                    "altLineId": 8445818728,
                                    "points": 45.5,
                                    "over": 1.917,
                                    "under": 1.757
                                },
                                {
                                    "altLineId": 8445818730,
                                    "points": 46.5,
                                    "over": 2.03,
                                    "under": 1.671
                                },
                                {
                                    "altLineId": 8445818732,
                                    "points": 47.5,
                                    "over": 2.15,
                                    "under": 1.595
                                }
                            ],
                            "teamTotal": {
                                "home": {
                                    "points": 28.5,
                                    "over": 1.862,
                                    "under": 1.806
                                },
                                "away": {
                                    "points": 16.5,
                                    "over": 1.787,
                                    "under": 1.884
                                }
                            }
                        }
                    ]
                },
                {
                    "id": 959545142,
                    "periods": [
                        {
                            "lineId": 672258203,
                            "number": 1,
                            "cutoff": "2019-03-05T09:23:30.443Z",
                            "maxSpread": 250,
                            "maxMoneyline": 250,
                            "maxTotal": 250,
                            "maxTeamTotal": 250,
                            "status": 1,
                            "spreads": [
                                {
                                    "hdp": 5.5,
                                    "home": 1.892,
                                    "away": 1.847
                                },
                                {
                                    "altLineId": 8445819249,
                                    "hdp": 8.5,
                                    "home": 1.684,
                                    "away": 2.1
                                },
                                {
                                    "altLineId": 8445819251,
                                    "hdp": 7.5,
                                    "home": 1.746,
                                    "away": 2.01
                                },
                                {
                                    "altLineId": 8445819253,
                                    "hdp": 6.5,
                                    "home": 1.819,
                                    "away": 1.925
                                },
                                {
                                    "altLineId": 8445819255,
                                    "hdp": 4.5,
                                    "home": 1.97,
                                    "away": 1.775
                                },
                                {
                                    "altLineId": 8445819257,
                                    "hdp": 3.5,
                                    "home": 2.06,
                                    "away": 1.714
                                },
                                {
                                    "altLineId": 8445819259,
                                    "hdp": 2.5,
                                    "home": 2.15,
                                    "away": 1.653
                                }
                            ],
                            "moneyline": {
                                "home": 2.23,
                                "away": 1.555
                            },
                            "totals": [
                                {
                                    "points": 46.5,
                                    "over": 1.877,
                                    "under": 1.787
                                },
                                {
                                    "altLineId": 8445819250,
                                    "points": 43.5,
                                    "over": 1.595,
                                    "under": 2.16
                                },
                                {
                                    "altLineId": 8445819252,
                                    "points": 44.5,
                                    "over": 1.675,
                                    "under": 2.02
                                },
                                {
                                    "altLineId": 8445819254,
                                    "points": 45.5,
                                    "over": 1.775,
                                    "under": 1.9
                                },
                                {
                                    "altLineId": 8445819256,
                                    "points": 47.5,
                                    "over": 2.01,
                                    "under": 1.68
                                },
                                {
                                    "altLineId": 8445819258,
                                    "points": 48.5,
                                    "over": 2.12,
                                    "under": 1.617
                                },
                                {
                                    "altLineId": 8445819260,
                                    "points": 49.5,
                                    "over": 2.23,
                                    "under": 1.558
                                }
                            ],
                            "teamTotal": {
                                "home": {
                                    "points": 22.5,
                                    "over": 1.847,
                                    "under": 1.819
                                },
                                "away": {
                                    "points": 24.5,
                                    "over": 1.775,
                                    "under": 1.892
                                }
                            }
                        }
                    ]
                }
            ]
        },
        {
            "id": 199353,
            "events": [
                {
                    "id": 959407101,
                    "periods": [
                        {
                            "lineId": 672258177,
                            "number": 1,
                            "cutoff": "2019-03-05T19:58:26.65Z",
                            "maxSpread": 750,
                            "maxMoneyline": 750,
                            "maxTotal": 375,
                            "maxTeamTotal": 375,
                            "status": 1,
                            "spreads": [
                                {
                                    "hdp": 6.5,
                                    "home": 1.9,
                                    "away": 1.917
                                },
                                {
                                    "altLineId": 8445818881,
                                    "hdp": 9.5,
                                    "home": 1.44,
                                    "away": 2.83
                                },
                                {
                                    "altLineId": 8445818883,
                                    "hdp": 8.5,
                                    "home": 1.552,
                                    "away": 2.48
                                },
                                {
                                    "altLineId": 8445818885,
                                    "hdp": 7.5,
                                    "home": 1.699,
                                    "away": 2.18
                                },
                                {
                                    "altLineId": 8445818887,
                                    "hdp": 5.5,
                                    "home": 2.16,
                                    "away": 1.709
                                },
                                {
                                    "altLineId": 8445818889,
                                    "hdp": 4.5,
                                    "home": 2.43,
                                    "away": 1.571
                                },
                                {
                                    "altLineId": 8445818891,
                                    "hdp": 3.5,
                                    "home": 2.76,
                                    "away": 1.458
                                }
                            ],
                            "moneyline": {
                                "home": 3.11,
                                "away": 1.336
                            },
                            "totals": [
                                {
                                    "points": 24.5,
                                    "over": 1.9,
                                    "under": 1.833
                                },
                                {
                                    "altLineId": 8445818882,
                                    "points": 21.5,
                                    "over": 1.543,
                                    "under": 2.37
                                },
                                {
                                    "altLineId": 8445818884,
                                    "points": 22.5,
                                    "over": 1.645,
                                    "under": 2.16
                                },
                                {
                                    "altLineId": 8445818886,
                                    "points": 23.5,
                                    "over": 1.769,
                                    "under": 1.98
                                },
                                {
                                    "altLineId": 8445818888,
                                    "points": 25.5,
                                    "over": 2.06,
                                    "under": 1.709
                                },
                                {
                                    "altLineId": 8445818890,
                                    "points": 26.5,
                                    "over": 2.27,
                                    "under": 1.591
                                },
                                {
                                    "altLineId": 8445818892,
                                    "points": 27.5,
                                    "over": 2.49,
                                    "under": 1.497
                                }
                            ],
                            "teamTotal": {
                                "home": {
                                    "points": 9.5,
                                    "over": 1.806,
                                    "under": 1.934
                                },
                                "away": {
                                    "points": 14.5,
                                    "over": 1.854,
                                    "under": 1.884
                                }
                            }
                        }
                    ]
                },
                {
                    "id": 956894896,
                    "periods": [
                        {
                            "lineId": 672258185,
                            "number": 1,
                            "cutoff": "2019-03-05T19:58:23.6Z",
                            "maxMoneyline": 500,
                            "status": 1,
                            "moneyline": {
                                "home": 2.94,
                                "away": 1.413
                            }
                        }
                    ]
                },
                {
                    "id": 959723927,
                    "periods": [
                        {
                            "lineId": 672258204,
                            "number": 1,
                            "cutoff": "2019-03-05T12:00:00Z",
                            "maxMoneyline": 250,
                            "status": 1,
                            "moneyline": {
                                "home": 2.64,
                                "away": 1.446
                            }
                        }
                    ]
                }
            ]
        }
    ]
}
