{
    "sportId": 12,
    "last": 672258285,
    "leagues": [
        {
            "id": 204399,
            "events": [
                {
                    "id": 959545142,
                    "periods": [
                        {
                            "lineId": 672258285,
                            "number": 1,
                            "cutoff": "2019-03-05T09:23:30.443Z",
                            "maxSpread": 250,
                            "maxMoneyline": 250,
                            "maxTotal": 250,
                            "maxTeamTotal": 250,
                            "status": 1,
                            "spreads": [
                                {
                                    "hdp": 5.5,
                                    "home": 1.869,
                                    "away": 1.869
                                },
                                {
                                    "altLineId": 8445820393,
                                    "hdp": 8.5,
                                    "home": 1.671,
                                    "away": 2.12
                                },
                                {
                                    "altLineId": 8445820395,
                                    "hdp": 7.5,
                                    "home": 1.729,
                                    "away": 2.03
                                },
                                {
                                    "altLineId": 8445820397,
                                    "hdp": 6.5,
                                    "home": 1.8,
                                    "away": 1.943
                                },
                                {
                                    "altLineId": 8445820399,
                                    "hdp": 4.5,
                                    "home": 1.952,
                                    "away": 1.793
                                },
                                {
                                    "altLineId": 8445820401,
                                    "hdp": 3.5,
                                    "home": 2.03,
                                    "away": 1.729
                                },
                                {
                                    "altLineId": 8445820403,
                                    "hdp": 2.5,
                                    "home": 2.13,
                                    "away": 1.666
                                }
                            ],
                            "moneyline": {
                                "home": 2.22,
                                "away": 1.561
                            },
                            "totals": [
                                {
                                    "points": 45.5,
                                    "over": 1.806,
                                    "under": 1.862
                                },
                                {
                                    "altLineId": 8445820394,
                                    "points": 42.5,
                                    "over": 1.537,
                                    "under": 2.27
                                },
                                {
                                    "altLineId": 8445820396,
                                    "points": 43.5,
                                    "over": 1.613,
                                    "under": 2.12
                                },
                                {
                                    "altLineId": 8445820398,
                                    "points": 44.5,
                                    "over": 1.704,
                                    "under": 1.99
                                },
                                {
                                    "altLineId": 8445820400,
                                    "points": 46.5,
                                    "over": 1.917,
                                    "under": 1.757
                                },
                                {
                                    "altLineId": 8445820402,
                                    "points": 47.5,
                                    "over": 2.06,
                                    "under": 1.653
                                },
                                {
                                    "altLineId": 8445820404,
                                    "points": 48.5,
                                    "over": 2.16,
                                    "under": 1.591
                                }
                            ],
                            "teamTotal": {
                                "home": {
                                    "points": 22.5,
                                    "over": 1.854,
                                    "under": 1.813
                                },
                                "away": {
                                    "points": 24.5,
                                    "over": 1.8,
                                    "under": 1.869
                                }
                            }
                        }
                    ]
                }
            ]
        },
        {
            "id": 199353,
            "events": [
                {
                    "id": 956894896,
                    "periods": [
                        {
                            "lineId": 672258263,
                            "number": 1,
                            "cutoff": "2019-03-05T19:58:23.6Z",
                            "maxMoneyline": 500,
                            "status": 1,
                            "moneyline": {
                                "home": 2.75,
                                "away": 1.46
                            }
                        }
                    ]
                },
                {
                    "id": 959723927,
                    "periods": [
                        {
                            "lineId": 672258280,
                            "number": 1,
                            "cutoff": "2019-03-05T12:00:00Z",
                            "maxMoneyline": 250,
                            "status": 1,
                            "moneyline": {
                                "home": 2.68,
                                "away": 1.434
                            }
                        }
                    ]
                }
            ]
        }
    ]
}
