{
    "sportId": 12,
    "last": 672258305,
    "leagues": [
        {
            "id": 204399,
            "events": [
                {
                    "id": 959425768,
                    "periods": [
                        {
                            "lineId": 672258298,
                            "number": 1,
                            "cutoff": "2019-03-05T09:23:23.55Z",
                            "maxMoneyline": 250,
                            "status": 1,
                            "moneyline": {
                                "home": 2.3,
                                "away": 1.574
                            }
                        }
                    ]
                },
                {
                    "id": 959545142,
                    "periods": [
                        {
                            "lineId": 672258304,
                            "number": 1,
                            "cutoff": "2019-03-05T09:23:30.443Z",
                            "maxSpread": 250,
                            "maxMoneyline": 250,
                            "maxTotal": 250,
                            "maxTeamTotal": 250,
                            "status": 1,
                            "spreads": [
                                {
                                    "hdp": 5.5,
                                    "home": 1.884,
                                    "away": 1.854
                                },
                                {
                                    "altLineId": 8445820673,
                                    "hdp": 8.5,
                                    "home": 1.68,
                                    "away": 2.11
                                },
                                {
                                    "altLineId": 8445820675,
                                    "hdp": 7.5,
                                    "home": 1.74,
                                    "away": 2.02
                                },
                                {
                                    "altLineId": 8445820677,
                                    "hdp": 6.5,
                                    "home": 1.813,
                                    "away": 1.934
                                },
                                {
                                    "altLineId": 8445820679,
                                    "hdp": 4.5,
                                    "home": 1.961,
                                    "away": 1.781
                                },
                                {
                                    "altLineId": 8445820681,
                                    "hdp": 3.5,
                                    "home": 2.05,
                                    "away": 1.719
                                },
                                {
                                    "altLineId": 8445820683,
                                    "hdp": 2.5,
                                    "home": 2.15,
                                    "away": 1.657
                                }
                            ],
                            "moneyline": {
                                "home": 2.25,
                                "away": 1.546
                            },
                            "totals": [
                                {
                                    "points": 45.5,
                                    "over": 1.806,
                                    "under": 1.862
                                },
                                {
                                    "altLineId": 8445820674,
                                    "points": 42.5,
                                    "over": 1.537,
                                    "under": 2.27
                                },
                                {
                                    "altLineId": 8445820676,
                                    "points": 43.5,
                                    "over": 1.613,
                                    "under": 2.12
                                },
                                {
                                    "altLineId": 8445820678,
                                    "points": 44.5,
                                    "over": 1.704,
                                    "under": 1.99
                                },
                                {
                                    "altLineId": 8445820680,
                                    "points": 46.5,
                                    "over": 1.917,
                                    "under": 1.757
                                },
                                {
                                    "altLineId": 8445820682,
                                    "points": 47.5,
                                    "over": 2.06,
                                    "under": 1.653
                                },
                                {
                                    "altLineId": 8445820684,
                                    "points": 48.5,
                                    "over": 2.16,
                                    "under": 1.591
                                }
                            ],
                            "teamTotal": {
                                "home": {
                                    "points": 22.5,
                                    "over": 1.862,
                                    "under": 1.806
                                },
                                "away": {
                                    "points": 24.5,
                                    "over": 1.787,
                                    "under": 1.877
                                }
                            }
                        }
                    ]
                }
            ]
        },
        {
            "id": 199353,
            "events": [
                {
                    "id": 959407101,
                    "periods": [
                        {
                            "lineId": 672258292,
                            "number": 1,
                            "cutoff": "2019-03-05T19:58:26.65Z",
                            "maxSpread": 750,
                            "maxMoneyline": 750,
                            "maxTotal": 375,
                            "maxTeamTotal": 375,
                            "status": 1,
                            "spreads": [
                                {
                                    "hdp": 6.5,
                                    "home": 1.9,
                                    "away": 1.917
                                },
                                {
                                    "altLineId": 8445820489,
                                    "hdp": 9.5,
                                    "home": 1.442,
                                    "away": 2.83
                                },
                                {
                                    "altLineId": 8445820491,
                                    "hdp": 8.5,
                                    "home": 1.555,
                                    "away": 2.47
                                },
                                {
                                    "altLineId": 8445820493,
                                    "hdp": 7.5,
                                    "home": 1.704,
                                    "away": 2.17
                                },
                                {
                                    "altLineId": 8445820495,
                                    "hdp": 5.5,
                                    "home": 2.16,
                                    "away": 1.709
                                },
                                {
                                    "altLineId": 8445820497,
                                    "hdp": 4.5,
                                    "home": 2.44,
                                    "away": 1.568
                                },
                                {
                                    "altLineId": 8445820499,
                                    "hdp": 3.5,
                                    "home": 2.76,
                                    "away": 1.458
                                }
                            ],
                            "moneyline": {
                                "home": 3.11,
                                "away": 1.335
                            },
                            "totals": [
                                {
                                    "points": 24.5,
                                    "over": 1.9,
                                    "under": 1.84
                                },
                                {
                                    "altLineId": 8445820490,
                                    "points": 21.5,
                                    "over": 1.543,
                                    "under": 2.37
                                },
                                {
                                    "altLineId": 8445820492,
                                    "points": 22.5,
                                    "over": 1.645,
                                    "under": 2.16
                                },
                                {
                                    "altLineId": 8445820494,
                                    "points": 23.5,
                                    "over": 1.769,
                                    "under": 1.98
                                },
                                {
                                    "altLineId": 8445820496,
                                    "points": 25.5,
                                    "over": 2.06,
                                    "under": 1.709
                                },
                                {
                                    "altLineId": 8445820498,
                                    "points": 26.5,
                                    "over": 2.27,
                                    "under": 1.591
                                },
                                {
                                    "altLineId": 8445820500,
                                    "points": 27.5,
                                    "over": 2.49,
                                    "under": 1.497
                                }
                            ],
                            "teamTotal": {
                                "home": {
                                    "points": 9.5,
                                    "over": 1.806,
                                    "under": 1.934
                                },
                                "away": {
                                    "points": 14.5,
                                    "over": 1.854,
                                    "under": 1.884
                                }
                            }
                        }
                    ]
                },
                {
                    "id": 956894896,
                    "periods": [
                        {
                            "lineId": 672258287,
                            "number": 0,
                            "cutoff": "2019-03-05T19:59:00Z",
                            "maxSpread": 1000,
                            "maxMoneyline": 1000,
                            "status": 1,
                            "spreads": [
                                {
                                    "hdp": 1.5,
                                    "home": 1.826,
                                    "away": 2
                                }
                            ],
                            "moneyline": {
                                "home": 3.35,
                                "away": 1.334
                            }
                        }
                    ]
                },
                {
                    "id": 959723927,
                    "periods": [
                        {
                            "lineId": 672258305,
                            "number": 0,
                            "cutoff": "2019-03-05T09:28:07.633Z",
                            "maxSpread": 500,
                            "maxMoneyline": 500,
                            "status": 1,
                            "spreads": [
                                {
                                    "hdp": 1.5,
                                    "home": 1.793,
                                    "away": 1.952
                                }
                            ],
                            "moneyline": {
                                "home": 3.22,
                                "away": 1.317
                            }
                        }
                    ]
                }
            ]
        }
    ]
}
