{
    "sportId": 12,
    "last": 672258515,
    "leagues": [
        {
            "id": 204399,
            "events": [
                {
                    "id": 959545142,
                    "periods": [
                        {
                            "lineId": 672258502,
                            "number": 1,
                            "cutoff": "2019-03-05T09:23:30.443Z",
                            "maxSpread": 250,
                            "maxMoneyline": 250,
                            "maxTotal": 250,
                            "maxTeamTotal": 250,
                            "status": 1,
                            "spreads": [
                                {
                                    "hdp": 8.5,
                                    "home": 1.854,
                                    "away": 1.884
                                },
                                {
                                    "altLineId": 8445823401,
                                    "hdp": 11.5,
                                    "home": 1.578,
                                    "away": 2.29
                                },
                                {
                                    "altLineId": 8445823403,
                                    "hdp": 10.5,
                                    "home": 1.671,
                                    "away": 2.12
                                },
                                {
                                    "altLineId": 8445823405,
                                    "hdp": 9.5,
                                    "home": 1.781,
                                    "away": 1.97
                                },
                                {
                                    "altLineId": 8445823407,
                                    "hdp": 7.5,
                                    "home": 1.943,
                                    "away": 1.8
                                },
                                {
                                    "altLineId": 8445823409,
                                    "hdp": 6.5,
                                    "home": 2.04,
                                    "away": 1.729
                                },
                                {
                                    "altLineId": 8445823411,
                                    "hdp": 5.5,
                                    "home": 2.14,
                                    "away": 1.657
                                }
                            ],
                            "moneyline": {
                                "home": 2.87,
                                "away": 1.347
                            },
                            "totals": [
                                {
                                    "points": 46.5,
                                    "over": 1.862,
                                    "under": 1.806
                                },
                                {
                                    "altLineId": 8445823402,
                                    "points": 43.5,
                                    "over": 1.578,
                                    "under": 2.19
                                },
                                {
                                    "altLineId": 8445823404,
                                    "points": 44.5,
                                    "over": 1.657,
                                    "under": 2.05
                                },
                                {
                                    "altLineId": 8445823406,
                                    "points": 45.5,
                                    "over": 1.751,
                                    "under": 1.925
                                },
                                {
                                    "altLineId": 8445823408,
                                    "points": 47.5,
                                    "over": 1.99,
                                    "under": 1.694
                                },
                                {
                                    "altLineId": 8445823410,
                                    "points": 48.5,
                                    "over": 2.1,
                                    "under": 1.628
                                },
                                {
                                    "altLineId": 8445823412,
                                    "points": 49.5,
                                    "over": 2.21,
                                    "under": 1.568
                                }
                            ],
                            "teamTotal": {
                                "home": {
                                    "points": 21.5,
                                    "over": 1.8,
                                    "under": 1.862
                                },
                                "away": {
                                    "points": 26.5,
                                    "over": 1.892,
                                    "under": 1.781
                                }
                            }
                        }
                    ]
                }
            ]
        },
        {
            "id": 199353,
            "events": [
                {
                    "id": 959723927,
                    "periods": [
                        {
                            "lineId": 672258515,
                            "number": 0,
                            "cutoff": "2019-03-05T09:24:54.89Z",
                            "maxSpread": 500,
                            "maxMoneyline": 500,
                            "status": 1,
                            "spreads": [
                                {
                                    "hdp": 1.5,
                                    "home": 1.793,
                                    "away": 1.952
                                }
                            ],
                            "moneyline": {
                                "home": 3.22,
                                "away": 1.317
                            }
                        }
                    ]
                }
            ]
        }
    ]
}
