{
    "sportId": 12,
    "last": 672258665,
    "leagues": [
        {
            "id": 199353,
            "events": [
                {
                    "id": 959723927,
                    "periods": [
                        {
                            "lineId": 672258665,
                            "number": 1,
                            "cutoff": "2019-03-05T12:00:00Z",
                            "maxMoneyline": 250,
                            "status": 1,
                            "moneyline": {
                                "home": 3.35,
                                "away": 1.296
                            }
                        }
                    ]
                }
            ]
        }
    ]
}
