{
    "sportId": 12,
    "last": 672258820,
    "leagues": [
        {
            "id": 204399,
            "events": [
                {
                    "id": 959545142,
                    "periods": [
                        {
                            "lineId": 672258793,
                            "number": 2,
                            "cutoff": "2019-03-06T07:59:00Z",
                            "maxSpread": 100,
                            "maxMoneyline": 100,
                            "maxTotal": 100,
                            "maxTeamTotal": 100,
                            "status": 1,
                            "spreads": [
                                {
                                    "hdp": 6.5,
                                    "home": 1.884,
                                    "away": 1.854
                                },
                                {
                                    "altLineId": 8445826153,
                                    "hdp": 9.5,
                                    "home": 1.684,
                                    "away": 2.1
                                },
                                {
                                    "altLineId": 8445826155,
                                    "hdp": 8.5,
                                    "home": 1.746,
                                    "away": 2.01
                                },
                                {
                                    "altLineId": 8445826157,
                                    "hdp": 7.5,
                                    "home": 1.813,
                                    "away": 1.925
                                },
                                {
                                    "altLineId": 8445826159,
                                    "hdp": 5.5,
                                    "home": 1.961,
                                    "away": 1.781
                                },
                                {
                                    "altLineId": 8445826161,
                                    "hdp": 4.5,
                                    "home": 2.05,
                                    "away": 1.719
                                },
                                {
                                    "altLineId": 8445826163,
                                    "hdp": 3.5,
                                    "home": 2.14,
                                    "away": 1.657
                                }
                            ],
                            "moneyline": {
                                "home": 2.38,
                                "away": 1.49
                            },
                            "totals": [
                                {
                                    "points": 47.5,
                                    "over": 1.869,
                                    "under": 1.8
                                },
                                {
                                    "altLineId": 8445826154,
                                    "points": 44.5,
                                    "over": 1.574,
                                    "under": 2.2
                                },
                                {
                                    "altLineId": 8445826156,
                                    "points": 45.5,
                                    "over": 1.653,
                                    "under": 2.06
                                },
                                {
                                    "altLineId": 8445826158,
                                    "points": 46.5,
                                    "over": 1.746,
                                    "under": 1.934
                                },
                                {
                                    "altLineId": 8445826160,
                                    "points": 48.5,
                                    "over": 1.961,
                                    "under": 1.719
                                },
                                {
                                    "altLineId": 8445826162,
                                    "points": 49.5,
                                    "over": 2.06,
                                    "under": 1.649
                                },
                                {
                                    "altLineId": 8445826164,
                                    "points": 50.5,
                                    "over": 2.17,
                                    "under": 1.584
                                }
                            ],
                            "teamTotal": {
                                "home": {
                                    "points": 20.5,
                                    "over": 1.819,
                                    "under": 1.847
                                },
                                "away": {
                                    "points": 25.5,
                                    "over": 1.775,
                                    "under": 1.892
                                }
                            }
                        }
                    ]
                }
            ]
        },
        {
            "id": 199353,
            "events": [
                {
                    "id": 959723927,
                    "periods": [
                        {
                            "lineId": 672258803,
                            "number": 0,
                            "cutoff": "2019-03-05T09:24:54.89Z",
                            "maxSpread": 250,
                            "maxMoneyline": 500,
                            "status": 1,
                            "spreads": [
                                {
                                    "hdp": 1.5,
                                    "home": 1.793,
                                    "away": 1.952
                                }
                            ],
                            "moneyline": {
                                "home": 3.22,
                                "away": 1.317
                            }
                        },
                        {
                            "lineId": 672258820,
                            "number": 1,
                            "cutoff": "2019-03-05T12:00:00Z",
                            "maxMoneyline": 500,
                            "status": 1,
                            "moneyline": {
                                "home": 3.04,
                                "away": 1.349
                            }
                        }
                    ]
                }
            ]
        }
    ]
}
