{
    "sportId": 12,
    "last": 672259205,
    "leagues": [
        {
            "id": 199353,
            "events": [
                {
                    "id": 959723926,
                    "periods": [
                        {
                            "lineId": 672259203,
                            "number": 1,
                            "cutoff": "2019-03-05T09:26:51.567Z",
                            "maxTotal": 250,
                            "status": 1,
                            "totals": [
                                {
                                    "points": 24.5,
                                    "over": 1.763,
                                    "under": 1.909
                                }
                            ]
                        }
                    ]
                },
                {
                    "id": 959723927,
                    "periods": [
                        {
                            "lineId": 672259204,
                            "number": 0,
                            "cutoff": "2019-03-05T09:24:54.89Z",
                            "status": 2
                        },
                        {
                            "lineId": 672259205,
                            "number": 1,
                            "cutoff": "2019-03-05T11:28:00.433Z",
                            "maxMoneyline": 100,
                            "status": 2,
                            "moneyline": {
                                "home": 2.44,
                                "away": 1.515
                            }
                        }
                    ]
                }
            ]
        }
    ]
}
