{
    "sportId": 12,
    "last": 672259396,
    "leagues": [
        {
            "id": 199353,
            "events": [
                {
                    "id": 959723927,
                    "periods": [
                        {
                            "lineId": 672259395,
                            "number": 0,
                            "cutoff": "2019-03-05T09:24:54.89Z",
                            "status": 2
                        },
                        {
                            "lineId": 672259396,
                            "number": 1,
                            "cutoff": "2019-03-05T11:28:00.433Z",
                            "maxMoneyline": 250,
                            "status": 2,
                            "moneyline": {
                                "home": 2.65,
                                "away": 1.444
                            }
                        }
                    ]
                }
            ]
        }
    ]
}
