{
    "sportId": 12,
    "last": 672259504,
    "leagues": [
        {
            "id": 199353,
            "events": [
                {
                    "id": 959407101,
                    "periods": [
                        {
                            "lineId": 672259504,
                            "number": 2,
                            "cutoff": "2019-03-05T19:58:26.677Z",
                            "maxSpread": 100,
                            "maxMoneyline": 100,
                            "maxTotal": 100,
                            "maxTeamTotal": 100,
                            "status": 1,
                            "spreads": [
                                {
                                    "hdp": 5.5,
                                    "home": 1.877,
                                    "away": 1.934
                                },
                                {
                                    "altLineId": 8445834529,
                                    "hdp": 8.5,
                                    "home": 1.429,
                                    "away": 2.87
                                },
                                {
                                    "altLineId": 8445834531,
                                    "hdp": 7.5,
                                    "home": 1.54,
                                    "away": 2.51
                                },
                                {
                                    "altLineId": 8445834533,
                                    "hdp": 6.5,
                                    "home": 1.689,
                                    "away": 2.2
                                },
                                {
                                    "altLineId": 8445834535,
                                    "hdp": 4.5,
                                    "home": 2.12,
                                    "away": 1.735
                                },
                                {
                                    "altLineId": 8445834537,
                                    "hdp": 3.5,
                                    "home": 2.39,
                                    "away": 1.591
                                },
                                {
                                    "altLineId": 8445834539,
                                    "hdp": 2.5,
                                    "home": 2.53,
                                    "away": 1.531
                                }
                            ],
                            "moneyline": {
                                "home": 2.78,
                                "away": 1.408
                            },
                            "totals": [
                                {
                                    "points": 23.5,
                                    "over": 1.917,
                                    "under": 1.826
                                },
                                {
                                    "altLineId": 8445834530,
                                    "points": 20.5,
                                    "over": 1.54,
                                    "under": 2.38
                                },
                                {
                                    "altLineId": 8445834532,
                                    "points": 21.5,
                                    "over": 1.675,
                                    "under": 2.12
                                },
                                {
                                    "altLineId": 8445834534,
                                    "points": 22.5,
                                    "over": 1.781,
                                    "under": 1.97
                                },
                                {
                                    "altLineId": 8445834536,
                                    "points": 24.5,
                                    "over": 2.06,
                                    "under": 1.709
                                },
                                {
                                    "altLineId": 8445834538,
                                    "points": 25.5,
                                    "over": 2.22,
                                    "under": 1.617
                                },
                                {
                                    "altLineId": 8445834540,
                                    "points": 26.5,
                                    "over": 2.43,
                                    "under": 1.518
                                }
                            ],
                            "teamTotal": {
                                "home": {
                                    "points": 9.5,
                                    "over": 1.826,
                                    "under": 1.909
                                },
                                "away": {
                                    "points": 13.5,
                                    "over": 1.917,
                                    "under": 1.819
                                }
                            }
                        }
                    ]
                },
                {
                    "id": 959723927,
                    "periods": [
                        {
                            "lineId": 672259490,
                            "number": 1,
                            "cutoff": "2019-03-05T11:28:00.433Z",
                            "maxMoneyline": 100,
                            "status": 1,
                            "moneyline": {
                                "home": 2.07,
                                "away": 1.704
                            }
                        }
                    ]
                }
            ]
        }
    ]
}
