{
    "sportId": 12,
    "last": 672259542,
    "leagues": [
        {
            "id": 199353,
            "events": [
                {
                    "id": 959407101,
                    "periods": [
                        {
                            "lineId": 672259538,
                            "number": 2,
                            "cutoff": "2019-03-05T19:58:26.677Z",
                            "maxSpread": 100,
                            "maxMoneyline": 100,
                            "maxTotal": 100,
                            "maxTeamTotal": 100,
                            "status": 1,
                            "spreads": [
                                {
                                    "hdp": 5.5,
                                    "home": 1.877,
                                    "away": 1.943
                                },
                                {
                                    "altLineId": 8445834897,
                                    "hdp": 8.5,
                                    "home": 1.429,
                                    "away": 2.88
                                },
                                {
                                    "altLineId": 8445834899,
                                    "hdp": 7.5,
                                    "home": 1.54,
                                    "away": 2.51
                                },
                                {
                                    "altLineId": 8445834901,
                                    "hdp": 6.5,
                                    "home": 1.684,
                                    "away": 2.2
                                },
                                {
                                    "altLineId": 8445834903,
                                    "hdp": 4.5,
                                    "home": 2.12,
                                    "away": 1.74
                                },
                                {
                                    "altLineId": 8445834905,
                                    "hdp": 3.5,
                                    "home": 2.38,
                                    "away": 1.595
                                },
                                {
                                    "altLineId": 8445834907,
                                    "hdp": 2.5,
                                    "home": 2.53,
                                    "away": 1.534
                                }
                            ],
                            "moneyline": {
                                "home": 2.78,
                                "away": 1.409
                            },
                            "totals": [
                                {
                                    "points": 23.5,
                                    "over": 1.909,
                                    "under": 1.826
                                },
                                {
                                    "altLineId": 8445834898,
                                    "points": 20.5,
                                    "over": 1.537,
                                    "under": 2.38
                                },
                                {
                                    "altLineId": 8445834900,
                                    "points": 21.5,
                                    "over": 1.671,
                                    "under": 2.12
                                },
                                {
                                    "altLineId": 8445834902,
                                    "points": 22.5,
                                    "over": 1.781,
                                    "under": 1.97
                                },
                                {
                                    "altLineId": 8445834904,
                                    "points": 24.5,
                                    "over": 2.06,
                                    "under": 1.714
                                },
                                {
                                    "altLineId": 8445834906,
                                    "points": 25.5,
                                    "over": 2.21,
                                    "under": 1.617
                                },
                                {
                                    "altLineId": 8445834908,
                                    "points": 26.5,
                                    "over": 2.43,
                                    "under": 1.52
                                }
                            ],
                            "teamTotal": {
                                "home": {
                                    "points": 9.5,
                                    "over": 1.793,
                                    "under": 1.952
                                },
                                "away": {
                                    "points": 13.5,
                                    "over": 1.917,
                                    "under": 1.819
                                }
                            }
                        }
                    ]
                },
                {
                    "id": 959723927,
                    "periods": [
                        {
                            "lineId": 672259542,
                            "number": 1,
                            "cutoff": "2019-03-05T11:28:00.433Z",
                            "maxMoneyline": 100,
                            "status": 1,
                            "moneyline": {
                                "home": 2.03,
                                "away": 1.735
                            }
                        }
                    ]
                }
            ]
        }
    ]
}
