{
    "sportId": 12,
    "last": 672259559,
    "leagues": [
        {
            "id": 204399,
            "events": [
                {
                    "id": 959425776,
                    "periods": [
                        {
                            "lineId": 672259543,
                            "number": 0,
                            "cutoff": "2019-03-06T07:59:00Z",
                            "maxSpread": 100,
                            "status": 1,
                            "spreads": [
                                {
                                    "hdp": -0.5,
                                    "home": 1.602,
                                    "away": 2.24
                                }
                            ]
                        }
                    ]
                }
            ]
        },
        {
            "id": 199353,
            "events": [
                {
                    "id": 959723927,
                    "periods": [
                        {
                            "lineId": 672259559,
                            "number": 1,
                            "cutoff": "2019-03-05T11:28:00.433Z",
                            "maxMoneyline": 100,
                            "status": 1,
                            "moneyline": {
                                "home": 2.04,
                                "away": 1.724
                            }
                        }
                    ]
                }
            ]
        }
    ]
}
