{
    "sportId": 12,
    "last": 672259780,
    "leagues": [
        {
            "id": 199353,
            "events": [
                {
                    "id": 959723927,
                    "periods": [
                        {
                            "lineId": 672259778,
                            "number": 1,
                            "cutoff": "2019-03-05T11:28:00.433Z",
                            "maxMoneyline": 500,
                            "status": 1,
                            "moneyline": {
                                "home": 2.32,
                                "away": 1.564
                            }
                        }
                    ]
                }
            ]
        },
        {
            "id": 199813,
            "events": [
                {
                    "id": 958437652,
                    "periods": [
                        {
                            "lineId": 672259780,
                            "number": 1,
                            "cutoff": "2019-03-05T10:00:00Z",
                            "maxSpread": 250,
                            "maxMoneyline": 250,
                            "status": 1,
                            "spreads": [
                                {
                                    "hdp": -8.5,
                                    "home": 1.961,
                                    "away": 1.781
                                },
                                {
                                    "altLineId": 8445837787,
                                    "hdp": -10.5,
                                    "home": 2.92,
                                    "away": 1.374
                                },
                                {
                                    "altLineId": 8445837789,
                                    "hdp": -9.5,
                                    "home": 2.35,
                                    "away": 1.552
                                },
                                {
                                    "altLineId": 8445837791,
                                    "hdp": -7.5,
                                    "home": 1.699,
                                    "away": 2.08
                                },
                                {
                                    "altLineId": 8445837793,
                                    "hdp": -6.5,
                                    "home": 1.526,
                                    "away": 2.41
                                }
                            ],
                            "moneyline": {
                                "home": 1.093,
                                "away": 6.43
                            }
                        }
                    ]
                }
            ]
        }
    ]
}
