{
    "sportId": 12,
    "last": 672260223,
    "leagues": [
        {
            "id": 199353,
            "events": [
                {
                    "id": 959723927,
                    "periods": [
                        {
                            "lineId": 672260223,
                            "number": 1,
                            "cutoff": "2019-03-05T11:28:00.433Z",
                            "maxMoneyline": 100,
                            "status": 1,
                            "moneyline": {
                                "home": 3.15,
                                "away": 1.328
                            }
                        }
                    ]
                }
            ]
        }
    ]
}
