{
  "scraped_at": "2019-03-05T09:23:58.637Z",
  "events": [{
      "foreign_match_id": "match_199353_oh_my_god_sinodragon_gaming_1_pinnacle",
      "series_match_sequence": 1,
      "type": "match",
      "markets": [{
        "market_name": "MatchMoneyLine",
        "market_state": "open",
        "odds": [{
            "selection_name": "home",
            "selection_order": 1,
            "value": 3.04
          },
          {
            "selection_name": "away",
            "selection_order": 2,
            "value": 1.349
          }
        ]
      }],
      "foreign_series_id": "series_199353_oh_my_god_sinodragon_gaming_pinnacle",
      "foreign_tournament_id": 199353,
      "planned_start": "2019-03-05T09:00:00.000Z",
      "live": true,
      "sport": "league of legends",
      "team_home": "Oh My God",
      "team_away": "SinoDragon Gaming"
    },
    {
      "type": "series",
      "markets": [{
          "market_name": "SeriesMoneyLineTwoWay",
          "market_state": "open",
          "odds": [{
              "selection_name": "home",
              "selection_order": 1,
              "value": 3.22
            },
            {
              "selection_name": "away",
              "selection_order": 2,
              "value": 1.317
            }
          ]
        },
        {
          "market_name": "SeriesHandicapAway1.5",
          "market_state": "open",
          "odds": [{
              "selection_name": "home",
              "selection_order": 1,
              "value": 1.793
            },
            {
              "selection_name": "away",
              "selection_order": 2,
              "value": 1.952
            }
          ]
        }
      ],
      "foreign_series_id": "series_199353_oh_my_god_sinodragon_gaming_pinnacle",
      "foreign_tournament_id": 199353,
      "planned_start": "2019-03-05T09:00:00.000Z",
      "live": true,
      "sport": "league of legends",
      "team_home": "Oh My God",
      "team_away": "SinoDragon Gaming"
    }
  ]
}
