{
  "sportId": 12,
  "last": 672257919,
  "leagues": [{
    "id": 199353,
    "events": [{
        "id": 959407101,
        "periods": [{
          "lineId": 672257919,
          "number": 1,
          "cutoff": "2019-03-05T19:58:26.65Z",
          "maxSpread": 750,
          "maxMoneyline": 750,
          "maxTotal": 375,
          "maxTeamTotal": 375,
          "status": 1,
          "spreads": [{
              "hdp": 6.5,
              "home": 1.884,
              "away": 1.934
            },
            {
              "altLineId": 8445815177,
              "hdp": 9.5,
              "home": 1.429,
              "away": 2.87
            },
            {
              "altLineId": 8445815179,
              "hdp": 8.5,
              "home": 1.54,
              "away": 2.51
            },
            {
              "altLineId": 8445815181,
              "hdp": 7.5,
              "home": 1.684,
              "away": 2.2
            },
            {
              "altLineId": 8445815183,
              "hdp": 5.5,
              "home": 2.14,
              "away": 1.724
            },
            {
              "altLineId": 8445815185,
              "hdp": 4.5,
              "home": 2.42,
              "away": 1.578
            },
            {
              "altLineId": 8445815187,
              "hdp": 3.5,
              "home": 2.74,
              "away": 1.462
            }
          ],
          "moneyline": {
            "home": 3.04,
            "away": 1.349
          },
          "totals": [{
              "points": 23.5,
              "over": 1.826,
              "under": 1.909
            },
            {
              "altLineId": 8445815178,
              "points": 20.5,
              "over": 1.465,
              "under": 2.58
            },
            {
              "altLineId": 8445815180,
              "points": 21.5,
              "over": 1.584,
              "under": 2.28
            },
            {
              "altLineId": 8445815182,
              "points": 22.5,
              "over": 1.694,
              "under": 2.08
            },
            {
              "altLineId": 8445815184,
              "points": 24.5,
              "over": 1.98,
              "under": 1.769
            },
            {
              "altLineId": 8445815186,
              "points": 25.5,
              "over": 2.15,
              "under": 1.657
            },
            {
              "altLineId": 8445815188,
              "points": 26.5,
              "over": 2.36,
              "under": 1.549
            }
          ],
          "teamTotal": {
            "home": {
              "points": 9.5,
              "over": 1.833,
              "under": 1.9
            },
            "away": {
              "points": 14.5,
              "over": 1.9,
              "under": 1.84
            }
          }
        }]
      },
      {
        "id": 956894896,
        "periods": [{
          "lineId": 672257904,
          "number": 1,
          "cutoff": "2019-03-05T19:58:23.6Z",
          "maxMoneyline": 500,
          "status": 1,
          "moneyline": {
            "home": 2.87,
            "away": 1.429
          }
        }]
      },
      {
        "id": 959723927,
        "periods": [{
          "lineId": 672257918,
          "number": 0,
          "cutoff": "2019-03-05T09:28:07.633Z",
          "maxSpread": 500,
          "maxMoneyline": 500,
          "status": 1,
          "spreads": [{
            "hdp": 1.5,
            "home": 1.719,
            "away": 2.05
          }],
          "moneyline": {
            "home": 3.22,
            "away": 1.317
          }
        }]
      }
    ]
  }]
}
